{
  // Required. Must be set to "Project".
  "Type": "Project",
  // Required. A list of distributions. These can map to different projects (if you have multiple projects in the same repository), or they can be variants of the same project.
  "Distributions": [
    {
      // Required. The name of the distribution, as passed into the -Distribution parameter when using scripts.
      "Name": "Game",
      // Required. The name of the subdirectory that the project is located in. It is strongly recommended that this matches "ProjectName" for the greatest platform compatibility.
      "FolderName": "ExampleUnified_4.26",
      // Required. The name of the .uproject file in that subdirectory.
      "ProjectName": "ExampleOSS",
      // Optional. Specifies the preparation scripts to run before various steps. You can specify multiple preparation entries.
      "Prepare": [
        // An example preparation script that runs a PowerShell script before every invocation of a BuildGraph step. This could be used to checkout additional files in the workspace.
        {
          // Required. Currently only "Custom" is supported.
          "Type": "Custom",
          // Required. The path to the PowerShell script to execute, relative to the repository root.
          "ScriptPath": "BuildScriptsExtra/ExtraClone.ps1",
          // Required. The types of steps that the preparation script should run before. A set of "Compile" and "BuildGraph".
          "RunBefore": ["BuildGraph"]
        }
      ],
      // Required. Specifies how to build, cook and stage the project.
      "Build": {
        // Required. Specifies how to build the editor.
        "Editor": {
          // Required. The editor target to build. This editor will be used to build the game, client and server targets specified below.
          "Target": "ExampleOSSEditor"
        },
        // Optional. The game targets to build (as opposed to editor, client or server targets). If you specify this, you should include all the Target, Platforms and Configurations properties shown below.
        "Game": {
          // Required. The list of game targets to build.
          "Targets": ["ExampleOSS"],
          // Required. The list of platforms to build the game targets for.
          "Platforms": ["Win64", "Android", "IOS", "Mac"],
          // Required. The list of configurations to build the game targets for.
          "Configurations": ["DebugGame"]
        },
        // Optional. The client targets to build (as opposed to editor, game or server targets).
        "Client": {
          // ... The same options are available as in the "Game" property.
        },
        // Optional. The server targets to build (as opposed to editor, game or client targets).
        "Server": {
          // ... The same options are available as in the "Game" property.
        }
      },
      // Optional. A list of tests to run for this project.
      "Tests": [
        // An example showing execution of a Gauntlet test.
        {
          // Required. The display name for the test. Must not contain |, + or ; characters.
          "Name": "Login with Native Credentials",
          // Required. This should be "Gauntlet" for custom tests.
          "Type": "Gauntlet",
          // Required. The list of targets, platforms and configurations required for the test. Each entry is a single target in a single configuration for multiple platforms. For example, if you need both a game and a dedicated server target, you'd have two entries in the Requires array.
          "Requires": [
            {
              // Required. One of "Game", "Client" or "Server".
              "Type": "Game",
              // Required. The name of the target (which must be listed in the build configuration above).
              "Target": "ExampleOSS",
              // Required. The platforms that are required for this test to run.
              "Platforms": ["Win64", "Android", "IOS", "Mac"],
              // Required. The configuration that the target was built in which will be used for this test.
              "Configuration": "DebugGame"
            }
          ],
          // Required. The configuration on how to run the Gauntlet test.
          "Gauntlet": {
            // Required. The C# script that contains the Gauntlet test.
            "ScriptPath": "BuildScriptsExtra/EOSGauntletTest.cs",
            // Required. The device list JSON that specifies devices that tests can run on.
            "DeviceListPath": "BuildScriptsExtra/DeviceList.json",
            // Required. The name of the test class in the C# script to run.
            "TestName": "EOSGauntletLoginWithNativeCredentialsTest",
            // Required. The configuration that the test will be run under.
            "Configuration": "DebugGame",
            // Optional. If specified, sets the resource_group parameter when tests are running under GitLab. This will prevent tests with the same resource group from running at the same time, even across runners or different pipeline runs, which is useful if you have a limited number of test devices and need to ensure tests can't conflict when attempting to acquire them.
            "ResourceGroup": "Consoles"
          }
        },
        // An example showing execution of a custom test written in Powershell.
        {
          // Required. The name of the job/step as it would be displayed in GitLab. This must be unique amongst all tests defined.
          "Name": "No Crash on No DLL",
          // Required. This should be "Custom" for custom tests.
          "Type": "Custom",
          // Required. Specifies the settings for executing custom tests.
          "Custom": {
            // Required. The path to the test script, relative to the repository root.
            // The script receives the following parameters:
            //   -EnginePath "C:\Path\To\UnrealEngine"
            //   -StageDirectory "C:\Path\To\UProject\Saved\StagedBuilds"
            "ScriptPath": "BuildScriptsExtra/TestCustom.ps1"
          }
        }
        // You can specify multiple tests to run.
      ]
    }
    // You can define more than one distribution.
  ]
}
